{
"type": "FeatureCollection",
                                                                                
"features": [
{ "type": "Feature", "properties": { "Name": "WA-OWF-JU89 Wolverine 6-30-2015 0000", "Description": "<a href='http:\/\/www.geomac.gov' target='_blank'><img src='http:\/\/wildfire.cr.usgs.gov\/geomac\/images\/geomac.gif' width='144' height='42' \/><\/a><br \/> Agency: USFS<br \/> Unit Identifer: WA-OWF<br \/> Fire Number: JU89<br \/> Fire Name: Wolverine<br \/> Fire Name (if in complex):  <br \/> Acres: 0.87<br \/> Perimeter Date: 6\/30\/2015<br \/> Perimeter Time: 0000<br \/> Comments: WFDSS<br \/> Incident Number: WA-OWF-000287<br \/> <a href='http:\/\/www.nifc.gov\/fireInfo\/nfn.htm' target='_blank'>National Fire News<\/a><br \/> <a href='http:\/\/www.geomac.gov\/' target='_blank'>Geomac Wildland Fire Support<\/a><br \/> <a href='http:\/\/inciweb.nwcg.gov\/incident\/ ' target='_blank'>Inciweb<\/a>" }, "geometry": { "type": "Point", "coordinates": [ 45, 90, 0.0 ] } }
,
{ "type": "Feature", "properties": { "Name": "WA-OWF-JU89 Wolverine 6-30-2015 0000", "Description": "" }, "geometry": { "type": "Polygon", "coordinates": [ [ [ -120.6633, 48.22638, 0.0 ], [ -120.6633, 48.22646, 0.0 ], [ -120.6634, 48.22653, 0.0 ], [ -120.6636, 48.22653, 0.0 ], [ -120.6636, 48.22661, 0.0 ], [ -120.6637, 48.22661, 0.0 ], [ -120.6638, 48.22668, 0.0 ], [ -120.6642, 48.22668, 0.0 ], [ -120.6639, 48.22684, 0.0 ], [ -120.6639, 48.22699, 0.0 ], [ -120.6639, 48.22699, 0.0 ], [ -120.6637, 48.22691, 0.0 ], [ -120.6636, 48.22691, 0.0 ], [ -120.6636, 48.22684, 0.0 ], [ -120.6634, 48.22684, 0.0 ], [ -120.6633, 48.22676, 0.0 ], [ -120.6629, 48.22676, 0.0 ], [ -120.6628, 48.22668, 0.0 ], [ -120.6627, 48.22668, 0.0 ], [ -120.6627, 48.22638, 0.0 ], [ -120.6633, 48.22638, 0.0 ] ] ] } }

]
}
